%YAML 1.1
%TAG !u! tag:unity3d.com,2011:
--- !u!21 &2100000
Material:
  serializedVersion: 6
  m_ObjectHideFlags: 0
  m_CorrespondingSourceObject: {fileID: 0}
  m_PrefabInstance: {fileID: 0}
  m_PrefabAsset: {fileID: 0}
  m_Name: Shader Graphs_crystal_shader
  m_Shader: {fileID: -6465566751694194690, guid: 91655b281b9ceda4eae52cfc3f2239fe,
    type: 3}
  m_ShaderKeywords: 
  m_LightmapFlags: 2
  m_EnableInstancingVariants: 0
  m_DoubleSidedGI: 0
  m_CustomRenderQueue: -1
  stringTagMap:
    MotionVector: User
  disabledShaderPasses:
  - MOTIONVECTORS
  m_SavedProperties:
    serializedVersion: 3
    m_TexEnvs:
    - Texture2D_5CE1FA4:
        m_Texture: {fileID: 2800000, guid: d4833754193fec64087be58b6a316c07, type: 3}
        m_Scale: {x: 1, y: 1}
        m_Offset: {x: 0, y: 0}
    - _NormalFromTexture_936D0981_Texture_0:
        m_Texture: {fileID: 2800000, guid: 9c5d68f4f88c7fd4e85fbc342a10ed17, type: 3}
        m_Scale: {x: 1, y: 1}
        m_Offset: {x: 0, y: 0}
    - _SampleTexture2D_10C0EBE0_Texture_1:
        m_Texture: {fileID: 2800000, guid: 52e86982d12ff504facd6a1ce26d4da4, type: 3}
        m_Scale: {x: 1, y: 1}
        m_Offset: {x: 0, y: 0}
    - _SampleTexture2D_78EC7A39_Texture_1:
        m_Texture: {fileID: 2800000, guid: d4833754193fec64087be58b6a316c07, type: 3}
        m_Scale: {x: 1, y: 1}
        m_Offset: {x: 0, y: 0}
    m_Floats:
    - Vector1_694ED234: 1
    - Vector1_C3736089: 0.01
    - Vector1_DACC45BF: 1
    - Vector1_F171C9AF: 0
    - Vector1_F6BD8519: 5
    m_Colors:
    - Color_19FE070F: {r: 8.204344, g: 0.5584109, b: 0, a: 0}
