%YAML 1.1
%TAG !u! tag:unity3d.com,2011:
--- !u!1045 &1
EditorBuildSettings:
  m_ObjectHideFlags: 0
  serializedVersion: 2
  m_Scenes:
  - enabled: 0
    path: Assets/Scenes/samplescene.unity
    guid: cbfe36cfddfde964d9dfce63a355d5dd
  - enabled: 1
    path: Assets/Scenes/Island.unity
    guid: 657ab1b33697d594aa753f9b609bf539
  m_configObjects: {}
